{
    "fluentMethods": true,
    "relationships": [],
    "fields": [
        {
            "fieldName": "description",
            "fieldType": "String",
            "fieldValidateRules": [
                "required",
                "maxlength"
            ],
            "fieldValidateRulesMaxlength": 255
        }
    ],
    "changelogDate": "20170816015831",
    "entityTableName": "vehicle_status",
    "dto": "no",
    "pagination": "no",
    "service": "no"
}